<svg id="a1ae0655-2809-4aa9-b7fa-9f707bb7b790" data-name="Layer 1" xmlns="http://www.w3.org/2000/svg" width="73.4" height="34.78" viewBox="0 0 73.4 34.78">
  <defs>
    <style>
      .f2a090b9-77da-4aa9-9c7b-2509ea71ec1b {
        fill-rule: evenodd;
      }
    </style>
  </defs>
  <title>logo05</title>
  <g id="ebea22cc-ebf5-418d-ab64-f4f36169bb4b" data-name="Camada 2">
    <path class="f2a090b9-77da-4aa9-9c7b-2509ea71ec1b" d="M48.9,0h1.2V6.4H48.9Z" transform="translate(0 0)"/>
    <path class="f2a090b9-77da-4aa9-9c7b-2509ea71ec1b" d="M52.6.7V1.9h.9v.8h-.9a14.7,14.7,0,0,0,0,2.1c0,.4.2.7.8.6v.9a3.3,3.3,0,0,1-1.4,0c-1-.5-.5-2.3-.6-3.6h-.5V1.8h.5V1A5.27,5.27,0,0,0,52.6.7" transform="translate(0 0)"/>
    <path class="f2a090b9-77da-4aa9-9c7b-2509ea71ec1b" d="M28.6.7V1.9h.9v.8h-.9a14.7,14.7,0,0,0,0,2.1c0,.4.2.7.8.6v.9a3.3,3.3,0,0,1-1.4,0c-1-.5-.5-2.3-.6-3.6h-.5V1.8h.5V1A5.27,5.27,0,0,0,28.6.7" transform="translate(0 0)"/>
    <path class="f2a090b9-77da-4aa9-9c7b-2509ea71ec1b" d="M61.2,1.8V3c-1.6-.2-.9,2.3-1.1,3.4H58.9V1.9H60a2,2,0,0,0,.1.7c.2-.4.5-.9,1.1-.8" transform="translate(0 0)"/>
    <path class="f2a090b9-77da-4aa9-9c7b-2509ea71ec1b" d="M26.3,1.8V3c-1.6-.2-.9,2.3-1.1,3.4H24V1.9h1.1a2,2,0,0,0,.1.7c.2-.4.4-.9,1.1-.8" transform="translate(0 0)"/>
    <path class="f2a090b9-77da-4aa9-9c7b-2509ea71ec1b" d="M65.2,6.4H64.1c0-.2,0-.3-.1-.4a1.38,1.38,0,0,1-1.6.4A1.6,1.6,0,0,1,62,4.2l.1-.1a2.72,2.72,0,0,1,1.7-.6c.2-.9-1.2-.8-1.6-.5-.1-.2-.1-.5-.2-.8a2.62,2.62,0,0,1,2.7,0c.8.8.2,2.7.5,4.2M63,4.5c-.2.3-.1,1,.2,1.1s.4,0,.5-.2a1.63,1.63,0,0,0,.1-1.2,1.14,1.14,0,0,0-.8.3" transform="translate(0 0)"/>
    <path class="f2a090b9-77da-4aa9-9c7b-2509ea71ec1b" d="M23.4,6.4H22.3V6a1.38,1.38,0,0,1-1.6.4,1.6,1.6,0,0,1-.4-2.2l.1-.1a2.72,2.72,0,0,1,1.7-.6c.2-.9-1.1-.8-1.6-.5-.1-.2-.1-.5-.2-.8a2.62,2.62,0,0,1,2.7,0c.8.8.1,2.7.4,4.2M21.3,4.5c-.2.3-.1,1,.2,1.1a.37.37,0,0,0,.5-.2c.2-.2.1-.9.1-1.2a1.14,1.14,0,0,0-.8.3" transform="translate(0 0)"/>
    <path class="f2a090b9-77da-4aa9-9c7b-2509ea71ec1b" d="M43.7,1.9a2.92,2.92,0,0,1-.2.9c-1.7-.7-1.9,2.6-.5,2.6.2,0,.3-.1.5-.1,0,.3.1.6.1.9a1.73,1.73,0,0,1-1,.1,2,2,0,0,1-1.7-2.4,2.1,2.1,0,0,1,1.9-2.2c.3.1.6.1.9.2" transform="translate(0 0)"/>
    <path class="f2a090b9-77da-4aa9-9c7b-2509ea71ec1b" d="M44.3,1.9h1.2v2c0,.6-.1,1.5.4,1.6s.5-.3.6-.6c.1-.9-.1-2,0-3h1.2V6.4h-1V5.9a2,2,0,0,1-.9.5c-2.1.3-1.3-2.8-1.5-4.5h0" transform="translate(0 0)"/>
    <path class="f2a090b9-77da-4aa9-9c7b-2509ea71ec1b" d="M54.4,1.9h1.2a19.33,19.33,0,0,0,.1,3.4.45.45,0,0,0,.8-.3c.1-.8-.1-2.2,0-3h1.2V6.5h-1a.9.9,0,0,0-.1-.5,1.35,1.35,0,0,1-.9.5c-1.9.3-1.2-2.8-1.3-4.6h0" transform="translate(0 0)"/>
    <path class="f2a090b9-77da-4aa9-9c7b-2509ea71ec1b" d="M68.7,1.8h4.5v23H68.7V1.8h0" transform="translate(0 0)"/>
    <path class="f2a090b9-77da-4aa9-9c7b-2509ea71ec1b" d="M35.5,9.1c-.2,1.1-.5,2.1-.8,3.2-.7-.3-2.4-1-3.4-.4a1.31,1.31,0,0,0-.5,1.7,3.44,3.44,0,0,0,1.6,1.3c1.7,1,3.6,2.2,3.7,4.7a4.61,4.61,0,0,1-3.1,5,8.49,8.49,0,0,1-6.8-.4A29.92,29.92,0,0,0,27,21c1,.5,2.8,1.3,4.1.6a1.36,1.36,0,0,0,.7-1.8c-.4-1.1-2.3-1.7-3.2-2.4a4.93,4.93,0,0,1-1.3-6.8,5,5,0,0,1,2.3-1.8,7.56,7.56,0,0,1,5.9.3" transform="translate(0 0)"/>
    <path class="f2a090b9-77da-4aa9-9c7b-2509ea71ec1b" d="M65.7,24.9H61.6a7.77,7.77,0,0,1-.2-1.6,6,6,0,0,0-.8.8,4.91,4.91,0,0,1-3.5,1.1,4,4,0,0,1-3.4-2.3,6.37,6.37,0,0,1-.3-4.7c1-2.8,3.8-3.9,7.4-4.1a2.21,2.21,0,0,0-.6-1.9c-1.2-1.2-4.2-.4-5.3.3-.3-1-.5-1.9-.8-2.9a10.56,10.56,0,0,1,5.2-1.3A6,6,0,0,1,64,10c1.4,1.6,1.4,4.1,1.4,6.9a70.43,70.43,0,0,0,.3,8m-6.8-7.5a2.34,2.34,0,0,0-1.2,1c-.7,1.1-.2,3,.8,3.4a1.9,1.9,0,0,0,2.4-1.2.9.9,0,0,0,.1-.5,14.05,14.05,0,0,0,0-2.9c0-.4,0-.3-.2-.3a5.92,5.92,0,0,0-1.9.5" transform="translate(0 0)"/>
    <path class="f2a090b9-77da-4aa9-9c7b-2509ea71ec1b" d="M4.3,8.6H9.1c.7,3.9,1.4,7.9,2,11.8.5-4.1,1.3-7.9,2-11.8h4.5c-1.5,5.4-3,10.9-4.5,16.3H8.9C7.4,19.5,5.8,14,4.3,8.6" transform="translate(0 0)"/>
    <path class="f2a090b9-77da-4aa9-9c7b-2509ea71ec1b" d="M19.5,8.6H24V24.9H19.4l.1-16.3c-.1.1-.1,0,0,0" transform="translate(0 0)"/>
    <path class="f2a090b9-77da-4aa9-9c7b-2509ea71ec1b" d="M38.3,8.6h4.6V15c0,2.1-.3,4.7.6,5.9a1.44,1.44,0,0,0,1.5.5c1.6-.5,1.3-2.7,1.3-4.7V8.6h4.5c0,5.4-.1,11,.1,16.3H47a9.85,9.85,0,0,1-.2-1.7,1,1,0,0,0-.4.5A4.77,4.77,0,0,1,42,25.2c-4-.6-3.7-5.2-3.7-9.8V8.6h0" transform="translate(0 0)"/>
    <path class="f2a090b9-77da-4aa9-9c7b-2509ea71ec1b" d="M29.6,27.3V33H29v-.5c-.1,0-.1.2-.2.2a.91.91,0,0,1-1.1.2c-1.1-.6-1.1-3.9.4-4.1a1.05,1.05,0,0,1,.9.5,14.7,14.7,0,0,1,0-2.1,1.27,1.27,0,0,1,.6.1m-1.3,5.2c.3,0,.6-.3.7-.8a4.3,4.3,0,0,0,0-1.6c0-.5-.4-.8-.7-.7-1,.3-.9,3.1,0,3.1" transform="translate(0 0)"/>
    <path class="f2a090b9-77da-4aa9-9c7b-2509ea71ec1b" d="M57.7,27.3V33h-.6v-.5c-.2.2-.2.3-.4.5a.9.9,0,0,1-1.1-.1c-.8-.7-.7-2.9,0-3.6.4-.4,1.3-.5,1.5.2V27.4a.47.47,0,0,1,.6-.1m-1.8,2.5c-.4.6-.3,2.7.4,2.8a.71.71,0,0,0,.7-.8c.1-.9.1-2.4-.7-2.2-.2-.1-.3,0-.4.2" transform="translate(0 0)"/>
    <path class="f2a090b9-77da-4aa9-9c7b-2509ea71ec1b" d="M40.7,27.4a10.63,10.63,0,0,1-.9,1.1h-.4c.2-.4.5-.7.7-1.1Z" transform="translate(0 0)"/>
    <path class="f2a090b9-77da-4aa9-9c7b-2509ea71ec1b" d="M69.4,27.7h.3c0,.4-.1.6-.4.7-.5.1-1-.7-1.1,0h-.3c0-.5.3-.8.7-.7s.8.6.8,0" transform="translate(0 0)"/>
    <path class="f2a090b9-77da-4aa9-9c7b-2509ea71ec1b" d="M.7,32.6v2H0V29H.6c.1.1,0,.4.1.5A.88.88,0,0,1,2,29.1c.1,0,.1.1.2.1.8.7.7,3.1,0,3.7-.4.3-1.3.3-1.5-.3M.7,31c0,.8,0,1.5.6,1.5s.8-1.1.7-1.9c0-.6-.2-1.3-.8-1.1S.7,30.3.7,31" transform="translate(0 0)"/>
    <path class="f2a090b9-77da-4aa9-9c7b-2509ea71ec1b" d="M5.1,28.9v.7c-1.4,0-.8,2.1-1,3.4H3.4V29H4v.6a1.16,1.16,0,0,1,1.1-.7" transform="translate(0 0)"/>
    <path class="f2a090b9-77da-4aa9-9c7b-2509ea71ec1b" d="M6.5,28.9a1.49,1.49,0,0,1,.9.2c.9.8.8,3.5-.4,3.9a1.09,1.09,0,0,1-1.3-.4,3.09,3.09,0,0,1-.2-2.8,1.32,1.32,0,0,1,1-.9m.2,3.7c.8-.1.8-3.3-.2-3.1s-.9,3.2.2,3.1" transform="translate(0 0)"/>
    <path class="f2a090b9-77da-4aa9-9c7b-2509ea71ec1b" d="M10.7,29.4v-.5h.6v.9c0,1.3.2,3.2-.2,4a1.66,1.66,0,0,1-2.3.6A.52.52,0,0,0,9,34a1.67,1.67,0,0,0,1.2.1c.5-.2.5-.8.5-1.5a1,1,0,0,1-1.4.3h0c-1-.8-.8-3.7.6-3.9a.74.74,0,0,1,.8.4M10,32.5c.7,0,.7-1.4.6-2.3-.1-.4-.3-.8-.8-.7-.8.3-.8,3,.2,3" transform="translate(0 0)"/>
    <path class="f2a090b9-77da-4aa9-9c7b-2509ea71ec1b" d="M13.8,29v.6c-1.4,0-.8,2.1-.9,3.4h-.7c0-1.3,0-2.8-.1-4h.6v.6a1.06,1.06,0,0,1,1.1-.6" transform="translate(0 0)"/>
    <path class="f2a090b9-77da-4aa9-9c7b-2509ea71ec1b" d="M16.5,33h-.6v-.4c-.2.1-.2.3-.4.4-.9.5-1.5-.4-1.5-1.2s.8-1.3,1.8-1.3c0-.4,0-.8-.4-1a1,1,0,0,0-1,.2c-.1-.1-.1-.3-.2-.5a1.86,1.86,0,0,1,1.9.1c.7.6.1,2.5.4,3.7m-1.6-1.8c-.3.3-.3,1.2.1,1.3.8.2.9-1,.7-1.6a1.14,1.14,0,0,0-.8.3" transform="translate(0 0)"/>
    <path class="f2a090b9-77da-4aa9-9c7b-2509ea71ec1b" d="M19.8,29.5a1.14,1.14,0,0,1,1.5-.5.1.1,0,0,1,.1.1c.7.7.2,2.8.4,3.8h-.7a26.15,26.15,0,0,0,0-2.8c0-.5-.4-1.1-.9-.7S20,32,19.9,33h-.6a26.15,26.15,0,0,0,0-2.8c0-.4-.2-.7-.5-.7a.55.55,0,0,0-.5.3c-.4.7,0,2.3-.1,3.2h-.6V29h.6v.5a1.08,1.08,0,0,1,.5-.4c.2-.3.8-.1,1.1.4h0" transform="translate(0 0)"/>
    <path class="f2a090b9-77da-4aa9-9c7b-2509ea71ec1b" d="M24.9,33h-.6v-.4A1.09,1.09,0,0,1,23,33a1.33,1.33,0,0,1-.6-1c0-1,.8-1.5,1.8-1.5,0-.4,0-.8-.2-.9a1.38,1.38,0,0,0-1.1.1c0-.2-.1-.3-.1-.4a1.33,1.33,0,0,1,2.2.9,25.28,25.28,0,0,0-.1,2.8m-.7-2a.9.9,0,0,0-1,.7c-.1.4.1.9.4.9.7.1.7-1,.6-1.6Z" transform="translate(0 0)"/>
    <path class="f2a090b9-77da-4aa9-9c7b-2509ea71ec1b" d="M33,31.1H31c-.1,1.1.7,1.8,1.7,1.3,0,.2.1.3.1.5a2.48,2.48,0,0,1-1.7,0c-1.2-.8-1-3.8.5-4,1.2-.1,1.4,1.1,1.4,2.2m-1.1-1.7c-.6-.1-.8.6-.8,1.1h1.2a1.37,1.37,0,0,0-.4-1.1" transform="translate(0 0)"/>
    <path class="f2a090b9-77da-4aa9-9c7b-2509ea71ec1b" d="M35.7,32.6v2H35c-.1-1.8,0-3.8,0-5.6h.6v.5c.2-.2.3-.5.8-.5,1.8-.2,1.9,4.5-.1,4.2-.3-.2-.5-.3-.6-.6m0-.9c0,.5.3.9.8.8.8-.1.9-3.3-.2-3-.7.2-.7,1.5-.6,2.2" transform="translate(0 0)"/>
    <path class="f2a090b9-77da-4aa9-9c7b-2509ea71ec1b" d="M39.5,29c1.9-.2,1.9,3.6.5,4.1-1.1.4-1.7-.8-1.7-1.7a2.31,2.31,0,0,1,.7-2.2.76.76,0,0,1,.5-.2m-.3.6c-.5.5-.6,3.2.5,3,.8-.2.8-3.2-.2-3.1a.37.37,0,0,1-.3.1" transform="translate(0 0)"/>
    <path class="f2a090b9-77da-4aa9-9c7b-2509ea71ec1b" d="M43.4,29.1c0,.2-.1.3-.2.5-.4-.3-1.2-.2-1.1.5s1.2.7,1.3,1.5S43,33.1,41.9,33a1.42,1.42,0,0,1-.6-.2c0-.2.1-.3.1-.5.6.4,1.6.1,1.2-.7-.2-.5-1.2-.7-1.3-1.4a1.16,1.16,0,0,1,1.1-1.3,2.15,2.15,0,0,1,1,.2" transform="translate(0 0)"/>
    <path class="f2a090b9-77da-4aa9-9c7b-2509ea71ec1b" d="M48.5,29.4v-.5h.6c-.2,1.7.5,4.7-.7,5.5a1.91,1.91,0,0,1-1.8,0,.9.9,0,0,0,.1-.5c.4.2,1.1.3,1.4,0s.2-.8.3-1.4a1,1,0,0,1-1.5.2c-.9-.9-.7-3.7.6-3.8a1.23,1.23,0,0,1,1,.5m-.9.1c-.9.1-.8,3,.1,3,.6,0,.6-.8.6-1.5s0-1.3-.5-1.5h-.2" transform="translate(0 0)"/>
    <path class="f2a090b9-77da-4aa9-9c7b-2509ea71ec1b" d="M51.6,28.9v.7c-1.4-.1-.8,2.1-1,3.4H50V29h.6v.6a1.2,1.2,0,0,1,1-.7" transform="translate(0 0)"/>
    <path class="f2a090b9-77da-4aa9-9c7b-2509ea71ec1b" d="M54.3,33h-.6v-.4a1,1,0,0,1-1.4.3l-.1-.1a1.52,1.52,0,0,1,.1-2,2,2,0,0,1,1.3-.4,1.34,1.34,0,0,0-.2-.9c-.2-.3-.8-.2-1.1,0-.1-.2-.1-.3-.2-.5a2,2,0,0,1,1.7-.1c1,.7.3,2.8.5,4.1m-1.5-1.9a1.07,1.07,0,0,0-.1,1.4c.5.4.9-.3.9-.7a2,2,0,0,0-.1-.8c-.2-.1-.4,0-.7.1" transform="translate(0 0)"/>
    <path class="f2a090b9-77da-4aa9-9c7b-2509ea71ec1b" d="M64.2,33h-.6v-.4a1,1,0,0,1-1.4.3,1.23,1.23,0,0,1-.4-.8c-.1-1.1.7-1.7,1.8-1.7,0-.5,0-.8-.3-1s-.8,0-1,.1c0-.2-.1-.3-.1-.5a1.88,1.88,0,0,1,.8-.2c1.9-.1,1.1,2.5,1.2,4.2m-.7-2.1a1.14,1.14,0,0,0-.8.3c-.3.3-.3,1.2.1,1.3.8.3.9-1,.7-1.6Z" transform="translate(0 0)"/>
    <path class="f2a090b9-77da-4aa9-9c7b-2509ea71ec1b" d="M67.2,29.1a1.09,1.09,0,0,0-.1.5c-1.8-.7-2,3.1-.3,2.9.1,0,.2-.1.3-.1a.75.75,0,0,1,.1.5,1.42,1.42,0,0,1-.6.2.52.52,0,0,0-.2.4.47.47,0,0,1,.5.5c.1.7-.8,1-1.4.6,0-.1.1-.2.1-.3.2.1.7.2.7-.1s-.2-.4-.6-.4c.1-.2.2-.5.3-.7-1.8-.5-1.3-5,1.2-4" transform="translate(0 0)"/>
    <path class="f2a090b9-77da-4aa9-9c7b-2509ea71ec1b" d="M70,33h-.6v-.4a1,1,0,0,1-1.4.3c-.1-.1-.2-.1-.3-.2a1.53,1.53,0,0,1,.3-1.9,2.84,2.84,0,0,1,1.3-.4c0-.4,0-.6-.2-.8a1.08,1.08,0,0,0-1.1,0c-.1-.2-.1-.3-.2-.5a1.91,1.91,0,0,1,1.8,0c.8.7.2,2.7.4,3.9m-.8-2.1a.92.92,0,0,0-1,.9c0,.4.1.7.3.8.6.2.8-.4.8-1,.1-.3.1-.6-.1-.7h0" transform="translate(0 0)"/>
    <path class="f2a090b9-77da-4aa9-9c7b-2509ea71ec1b" d="M73.4,30.5v1a1.6,1.6,0,0,1-.8,1.4,1.23,1.23,0,0,1-1.6-.4c0-.1-.1-.1-.1-.2-.6-1.2-.2-3.7,1.4-3.3.7.1.9.6,1.1,1.5m-1.7-1c-.6.4-.7,3.2.4,3,.7-.1.9-3.2-.2-3.1,0,.1-.1.1-.2.1" transform="translate(0 0)"/>
    <path class="f2a090b9-77da-4aa9-9c7b-2509ea71ec1b" d="M59.3,29a24.3,24.3,0,0,0,0,2.7c0,.3.1.8.5.8,1.2-.1.5-2.4.7-3.5h.7v4h-.6v-.4c-.2.1-.3.3-.5.4a.91.91,0,0,1-1.1-.2c-.7-.7-.2-2.7-.3-3.8h.6Z" transform="translate(0 0)"/>
    <path class="f2a090b9-77da-4aa9-9c7b-2509ea71ec1b" d="M45.9,30.6v.5H44c.1-.1,0-.4,0-.5Z" transform="translate(0 0)"/>
    <path d="M32.4,5a1,1,0,0,1-.8.6c-.5,0-.7-.7-.7-.7V4.5h2V3.7c0-.1.1-1.7-1.4-1.7s-1.6,1.9-1.6,1.9v.8a1.75,1.75,0,0,0,1.4,1.9h.2A1.86,1.86,0,0,0,33,5.7C33,5.6,32.4,4.9,32.4,5Zm-.9-2.3c.6,0,.5.9.5.9H31C30.9,3.6,30.9,2.7,31.5,2.7Z" transform="translate(0 0)"/>
    <path d="M38.4,5a1,1,0,0,1-.8.6c-.5,0-.7-.7-.7-.7V4.5h2V3.7c0-.1.1-1.7-1.4-1.7s-1.6,1.9-1.6,1.9v.8a1.75,1.75,0,0,0,1.4,1.9h.2A1.86,1.86,0,0,0,39,5.7C38.9,5.6,38.4,4.9,38.4,5Zm-1-2.3c.6,0,.5.9.5.9h-1S36.8,2.7,37.4,2.7Z" transform="translate(0 0)"/>
  </g>
</svg>
